…
``` r
output = vector("list", length = 500)

for (i in 1:500) {
  output[[i]] = sim_regression(n_subj = 30)
}

output |>
  bind_rows()
```

    ## # A tibble: 500 × 2
    ##    beta0_hat beta1_hat
    ##        <dbl>     <dbl>
    ##  1      2.41      2.84
    ##  2      2.05      3.05
    ##  3      1.76      3.07
    ##  4      1.86      3.23
    ##  5      2.18      2.97
    ##  6      2.06      2.72
    ##  7      1.92      3.16
    ##  8      2.22      2.83
    ##  9      2.00      3.02
    ## 10      1.53      3.22
    ## # ℹ 490 more rows
…
